{
  "temp_data": [
    {
      "area": "Lokaal E.01",
      "temps": [
        [
          20,
          25,
          22,
          20,
          27,
          23,
          30
        ]
      ]
    }
  ]
}